SpaceAndTime
…
# Remove the selected rows from the original dataset
netherlandsDF_filtered = netherlandsDF %>%
    anti_join(randomRowsPrecipitation)

Joining, by = c("station_name", "longitude", "latitude", "precip")

# Print the resulting dataframe
netherlandsDF_filtered

# A tibble: 217 × 4
   station_name      longitude latitude precip
   <chr>                 <dbl>    <dbl>  <dbl>
 1 WEST TERSCHELLING      5.22     53.4  130. 
 2 GRONINGEN-1            6.6      53.2  157. 
 3 HOORN                  5.07     52.6  146. 
 4 HOOFDDORP              4.7      52.3  130. 
 5 WINTERSWIJK            6.7      52.0   77.7
 6 KERKWERVE              3.87     51.7   91.8
 7 WESTDORPE-1            3.87     51.2   87.7
 8 OUDENBOSCH             4.53     51.6   84.2
 9 ROERMOND               5.97     51.2   56.4
10 PETTEN                 4.65     52.8  158. 
# … with 207 more rows
…
